{
  "board": {
    "size": {
      "xDimension": 5,
      "yDimension": 4
    }
  },
  "startPosition": {
    "xPosition": 0,
    "yPosition": 0
  },
  "direction": "North",
  "exitPoint": {
    "xPosition": 2,
    "yPosition": 3
  },
  "mines": [
    {
      "xPosition": 3,
      "yPosition": 3
    }
  ]
}